{
  "compilerOptions": {
    "target": "ES6",
    "module": "ESNext",
    "jsx": "react-jsx",
    "moduleResolution": "node",
    "allowSyntheticDefaultImports": true,
    "baseUrl": ".",
    "paths": {
      "*": ["src/*"]
    }
  },
  "include": ["src/**/*", "src/Images/ImageOne.jsx"],
  "exclude": ["node_modules"]
}
